…
# 8.6 통계 변환
### 범주형 변수의 통계 요약
ggplot2 패키지의 diamonds 는 약 54,000개의 대한 측정데이터이다.
- `caret`: 다이아 몬드 무게
- `cut`: 가공의 품질. Fair, Good, Very Good, Premium, Ideal
- `color`: 색상. D(최상)에서 F(최하)까지
- `clarity`: 투명도. I1(최하), SI2, SI1, VS2, VS1, VVS2, VVS1, IF(최상)
- `x`, `y`, `z`: 길이, 폭, 깊이
- `depth`: 깊이 비율 = `z / mean(x, y)`
- `table`: 최대폭 대비 윗면의 폭의 길이 비율
``` R
> diamonds
# A tibble: 53,940 × 10
   carat cut       color clarity depth table price     x     y     z
   <dbl> <ord>     <ord> <ord>   <dbl> <dbl> <int> <dbl> <dbl> <dbl>
 1  0.23 Ideal     E     SI2      61.5    55   326  3.95  3.98  2.43
 2  0.21 Premium   E     SI1      59.8    61   326  3.89  3.84  2.31
 3  0.23 Good      E     VS1      56.9    65   327  4.05  4.07  2.31
 4  0.29 Premium   I     VS2      62.4    58   334  4.2   4.23  2.63
 5  0.31 Good      J     SI2      63.3    58   335  4.34  4.35  2.75
 6  0.24 Very Good J     VVS2     62.8    57   336  3.94  3.96  2.48
 7  0.24 Very Good I     VVS1     62.3    57   336  3.95  3.98  2.47
 8  0.26 Very Good H     SI1      61.9    55   337  4.07  4.11  2.53
 9  0.22 Fair      E     VS2      65.1    61   337  3.87  3.78  2.49
10  0.23 Very Good H     VS1      59.4    61   338  4     4.05  2.39
# ℹ 53,930 more rows
# ℹ Use `print(n = ...)` to see more rows
…
