…
# 8.9 그래프의 외양 바꾸기
ggplot2는 사용자가 데이터를 geom의 각 aesthetics 요소로 매핑하여 자동으로 가로축과 세로축의 스케일을 결정하고, 표시할 색상의 스케일도 결정하고, 축과 범례에 표시될 레이블도 결정하여 그래프를 그려준다. 이러한 ggplot2의 기능은 사용자가 그래프의 세부 사항이 아니라 그래프의 핵심적인 매핑과 형태에만 집중할 수 있게 해주므로 매우 편리하다.

#### 좌표축의 조정
ggplot2는 데이터가 x와 y aesthetics에 매핑되면, 이를 이용하여 가로축과 세로축의 축척scale 를 생성한다. `x`와 `y`에 매핑된 변수가 수치형 변수이면 `scale_x_continous()`와 `scale_y_continous()`가, 범주형 변수이면 `scale_x_discrete()`와 `scale_y_discrete()`가 사용되어 가로축과 세로축의 축척을 생성한다.
- name: 축의 이름
- breaks: 축에 표시될 눈금의 위치
- minor_breaks: 축에 표시될 세부 눈금의 위치
- labels: 축 눈금에 씌여질 레이블
- limits: 축의 상한과 하한
- trans: 축에 별도의 변환을 적용할지 여부
- position: 축의 그래프 상에서의 위치 등
``` R
> midwest
# A tibble: 437 × 28
     PID county    state  area poptotal popdensity popwhite popblack popamerindian popasian popother percwhite percblack
   <int> <chr>     <chr> <dbl>    <int>      <dbl>    <int>    <int>         <int>    <int>    <int>     <dbl>     <dbl>
 1   561 ADAMS     IL    0.052    66090      1271.    63917     1702            98      249      124      96.7    2.58  
 2   562 ALEXANDER IL    0.014    10626       759      7054     3496            19       48        9      66.4   32.9   
 3   563 BOND      IL    0.022    14991       681.    14477      429            35       16       34      96.6    2.86  
 4   564 BOONE     IL    0.017    30806      1812.    29344      127            46      150     1139      95.3    0.412 
 5   565 BROWN     IL    0.018     5836       324.     5264      547            14        5        6      90.2    9.37  
 6   566 BUREAU    IL    0.05     35688       714.    35157       50            65      195      221      98.5    0.140 
 7   567 CALHOUN   IL    0.017     5322       313.     5298        1             8       15        0      99.5    0.0188
 8   568 CARROLL   IL    0.027    16805       622.    16519      111            30       61       84      98.3    0.661 
 9   569 CASS      IL    0.024    13437       560.    13384       16             8       23        6      99.6    0.119 
10   570 CHAMPAIGN IL    0.058   173025      2983.   146506    16559           331     8033     1596      84.7    9.57  
# ℹ 427 more rows
# ℹ 15 more variables: percamerindan <dbl>, percasian <dbl>, percother <dbl>, popadults <int>, perchsd <dbl>, percollege <dbl>,
#   percprof <dbl>, poppovertyknown <int>, percpovertyknown <dbl>, percbelowpoverty <dbl>, percchildbelowpovert <dbl>,
#   percadultpoverty <dbl>, percelderlypoverty <dbl>, inmetro <int>, category <chr>
# ℹ Use `print(n = ...)` to see more rows
…
